k,11,Wed Jun 12 15:02:00 CEST 2024
ahahha,10,Thu Jun 13 20:12:59 CEST 2024
f,4,Fri Jun 14 23:26:40 CEST 2024
h,1,Wed Jun 12 11:02:25 CEST 2024
jhmn ,1,Wed Jun 12 11:02:55 CEST 2024
hjk,1,Wed Jun 12 11:03:33 CEST 2024
hi,0,Wed Jun 12 11:05:26 CEST 2024
